<?xml version="1.0" encoding="UTF-8" standalone="no"?>
<!-- Created with Inkscape (http://www.inkscape.org/) -->

<svg
   width="85cm"
   height="200cm"
   viewBox="0 0 850 2000"
   version="1.1"
   id="svg5"
   inkscape:version="1.2 (dc2aedaf03, 2022-05-15)"
   sodipodi:docname="kakemono-solid.svg"
   xml:space="preserve"
   xmlns:inkscape="http://www.inkscape.org/namespaces/inkscape"
   xmlns:sodipodi="http://sodipodi.sourceforge.net/DTD/sodipodi-0.dtd"
   xmlns:xlink="http://www.w3.org/1999/xlink"
   xmlns="http://www.w3.org/2000/svg"
   xmlns:svg="http://www.w3.org/2000/svg"><sodipodi:namedview
     id="namedview7"
     pagecolor="#ffffff"
     bordercolor="#666666"
     borderopacity="1.0"
     inkscape:showpageshadow="2"
     inkscape:pageopacity="0.0"
     inkscape:pagecheckerboard="0"
     inkscape:deskcolor="#d1d1d1"
     inkscape:document-units="mm"
     showgrid="false"
     inkscape:zoom="0.1"
     inkscape:cx="1860"
     inkscape:cy="3855"
     inkscape:window-width="1920"
     inkscape:window-height="1011"
     inkscape:window-x="0"
     inkscape:window-y="32"
     inkscape:window-maximized="1"
     inkscape:current-layer="layer1" /><defs
     id="defs2"><color-profile
       name="Chemical-proof"
       xlink:href=".guix-profile/share/color/icc/krita/cmyk.icm"
       id="color-profile332" /><linearGradient
       id="linearGradient4696-5"><stop
         style="stop-color:#ffb638;stop-opacity:1;"
         offset="0"
         id="stop4698-6" /><stop
         style="stop-color:#f0ae26;stop-opacity:1;"
         offset="1"
         id="stop4700-2" /></linearGradient><linearGradient
       id="linearGradient4702-3-7"><stop
         style="stop-color:#e34646;stop-opacity:1;"
         offset="0"
         id="stop4704-1-5" /><stop
         style="stop-color:#ffbf2d;stop-opacity:1;"
         offset="1"
         id="stop4706-8-3" /></linearGradient><linearGradient
       inkscape:collect="always"
       xlink:href="#linearGradient4702-3-7"
       id="linearGradient7881"
       gradientUnits="userSpaceOnUse"
       gradientTransform="matrix(0.62355967,0,0,0.62355967,-210.60516,464.67138)"
       x1="142.96875"
       y1="63.65625"
       x2="176.60477"
       y2="70.667412" /><linearGradient
       inkscape:collect="always"
       xlink:href="#linearGradient4702-3-7"
       id="linearGradient7883"
       gradientUnits="userSpaceOnUse"
       gradientTransform="matrix(0.62355967,0,0,0.62355967,-210.62532,-66.82792)"
       x1="113.5146"
       y1="1004.8033"
       x2="78.000107"
       y2="922.07178" /><linearGradient
       inkscape:collect="always"
       xlink:href="#linearGradient4696-5"
       id="linearGradient7885"
       gradientUnits="userSpaceOnUse"
       gradientTransform="matrix(-0.34917188,0,0,0.34917188,-112.23383,194.87358)"
       x1="108.08774"
       y1="1025.709"
       x2="80.655251"
       y2="1043.709" /><linearGradient
       inkscape:collect="always"
       xlink:href="#linearGradient4702-3-7"
       id="linearGradient7887"
       gradientUnits="userSpaceOnUse"
       gradientTransform="matrix(-0.62355967,0,0,0.62355967,-83.964142,464.67118)"
       x1="142.96875"
       y1="63.65625"
       x2="177.04297"
       y2="69.791016" /></defs><g
     inkscape:label="Layer 1"
     inkscape:groupmode="layer"
     id="layer1"><rect
       style="fill:#242424;fill-opacity:1;stroke-width:0.269662;stroke-linecap:round"
       id="rect7813"
       width="850"
       height="1000.6582"
       x="-5.3068661e-14"
       y="2.553513e-14" /><path
       id="path7815"
       style="fill:#ffa02d;fill-opacity:1;stroke-width:0.269493;stroke-linecap:round"
       d="M 0,900.11654 H 106.25015 212.50013 L 318.7501,1000.5981 H 425.00008 531.25007 L 637.50005,900.11654 H 743.75002 850 V 2000 H 0 Z"
       sodipodi:nodetypes="cccccccccccc" /><g
       id="g7825"
       transform="matrix(2.6810238,0,0,2.6810238,17.4535,-1958.6515)"
       style="fill:#ffffff"><path
         d="m 114.29864,1016.2686 c -3.15017,1.5313 -6.4206,2.6798 -9.81131,3.4454 -3.39079,0.7657 -6.89092,1.1485 -10.500399,1.1485 -8.159708,0 -14.62401,-2.2751 -19.392927,-6.8253 -4.768937,-4.572 -7.153401,-10.7629 -7.153397,-18.57256 -4e-6,-7.89714 2.428211,-14.10987 7.284652,-18.63821 4.85642,-4.52825 11.506666,-6.79239 19.95076,-6.79244 3.259466,5e-5 6.376771,0.30631 9.351921,0.91878 2.99694,0.61258 5.81892,1.52042 8.46595,2.72354 v 10.13945 c -2.73453,-1.55314 -5.45807,-2.71256 -8.17063,-3.47825 -2.69076,-0.76562 -5.392426,-1.14844 -8.104994,-1.14849 -5.031469,5e-5 -8.914426,1.41104 -11.648882,4.23298 -2.712621,2.80014 -4.068921,6.81435 -4.068905,12.04264 -1.6e-5,5.18456 1.312533,9.18786 3.93765,12.00986 2.625077,2.822 6.354903,4.233 11.189489,4.233 1.312517,0 2.526625,-0.077 3.642326,-0.2297 1.137506,-0.175 2.154736,-0.4376 3.051676,-0.7876 v -9.516 h -7.711228 v -8.46591 h 19.688248 v 23.56031"
         style="font-style:normal;font-weight:bold;font-size:67.2026px;line-height:125%;font-family:Sans;-inkscape-font-specification:'Sans Bold';letter-spacing:0px;word-spacing:0px;fill:#ffffff;fill-opacity:1;stroke:none"
         id="path7817"
         inkscape:connector-curvature="0" /><path
         d="m 124.47091,1005.6041 v -22.44461 h 11.81295 v 3.67514 c -2e-5,1.99073 -0.011,4.49551 -0.0328,7.51435 -0.0219,2.99701 -0.0328,4.99865 -0.0328,6.00492 -2e-5,2.9532 0.0765,5.0861 0.22969,6.3987 0.15311,1.2907 0.41563,2.2313 0.78753,2.822 0.48125,0.7656 1.10471,1.3563 1.87039,1.7719 0.78751,0.4156 1.68441,0.6235 2.69072,0.6235 2.45007,0 4.37514,-0.9407 5.77522,-2.822 1.40003,-1.8813 2.10005,-4.4955 2.10008,-7.8425 v -18.14601 h 11.74732 v 36.75141 h -11.74732 v -5.3158 c -1.77197,2.1438 -3.65329,3.7298 -5.64396,4.758 -1.96885,1.0062 -4.14549,1.5094 -6.52994,1.5094 -4.24392,0 -7.48154,-1.3016 -9.71287,-3.9048 -2.20946,-2.6033 -3.31419,-6.3878 -3.31419,-11.3536"
         style="font-style:normal;font-weight:bold;font-size:67.2026px;line-height:125%;font-family:Sans;-inkscape-font-specification:'Sans Bold';letter-spacing:0px;word-spacing:0px;fill:#ffffff;fill-opacity:1;stroke:none"
         id="path7819"
         inkscape:connector-curvature="0" /><path
         d="m 172.77274,983.15949 h 11.74732 v 36.75141 h -11.74732 v -36.75141 m 0,-14.3068 h 11.74732 v 9.58162 h -11.74732 v -9.58162"
         style="font-style:normal;font-weight:bold;font-size:67.2026px;line-height:125%;font-family:Sans;-inkscape-font-specification:'Sans Bold';letter-spacing:0px;word-spacing:0px;fill:#ffffff;fill-opacity:1;stroke:none"
         id="path7821"
         inkscape:connector-curvature="0" /><path
         d="m 205.15991,1001.1086 -13.25675,-17.94911 h 12.43641 l 7.51435,10.89416 7.61279,-10.89416 h 12.43641 l -13.25676,17.88351 13.91303,18.8679 h -12.43641 l -8.26906,-11.6161 -8.17063,11.6161 h -12.43641 l 13.91303,-18.8023"
         style="font-style:normal;font-weight:bold;font-size:67.2026px;line-height:125%;font-family:Sans;-inkscape-font-specification:'Sans Bold';letter-spacing:0px;word-spacing:0px;fill:#ffffff;fill-opacity:1;stroke:none"
         id="path7823"
         inkscape:connector-curvature="0" /></g><path
       id="path7827"
       style="fill:#ffbf2d;stroke-width:0.269493;stroke-linecap:round"
       d="m 0,910.69987 h 106.25015 103.6042 L 316.10434,1011.1808 H 425.00008 533.89596 L 640.14595,910.69987 H 743.75002 850 V 2000 H 0 Z"
       sodipodi:nodetypes="cccccccccccc" /><text
       xml:space="preserve"
       style="font-style:normal;font-variant:normal;font-weight:bold;font-stretch:ultra-condensed;font-size:84.264px;line-height:10.9719px;font-family:'Fira Sans Compressed';-inkscape-font-specification:'Fira Sans Compressed, Bold Ultra-Condensed';font-variant-ligatures:normal;font-variant-caps:normal;font-variant-numeric:normal;font-variant-east-asian:normal;text-align:center;letter-spacing:0px;word-spacing:0px;text-anchor:middle;fill:#242424;fill-opacity:1;stroke:none;stroke-width:0.438874px;stroke-linecap:butt;stroke-linejoin:miter;stroke-opacity:1"
       x="423.12509"
       y="1185.4281"
       id="text7831"><tspan
         sodipodi:role="line"
         id="tspan7829"
         style="font-style:normal;font-variant:normal;font-weight:bold;font-stretch:ultra-condensed;font-size:84.264px;font-family:'Fira Sans Compressed';-inkscape-font-specification:'Fira Sans Compressed, Bold Ultra-Condensed';font-variant-ligatures:normal;font-variant-caps:normal;font-variant-numeric:normal;font-variant-east-asian:normal;text-align:center;text-anchor:middle;fill:#242424;fill-opacity:1;stroke:none;stroke-width:0.438874px"
         x="423.12509"
         y="1185.4281">Liberating</tspan></text><text
       xml:space="preserve"
       style="font-style:normal;font-variant:normal;font-weight:bold;font-stretch:ultra-condensed;font-size:84.264px;line-height:10.9719px;font-family:'Fira Sans Compressed';-inkscape-font-specification:'Fira Sans Compressed, Bold Ultra-Condensed';font-variant-ligatures:normal;font-variant-caps:normal;font-variant-numeric:normal;font-variant-east-asian:normal;text-align:center;letter-spacing:0px;word-spacing:0px;text-anchor:middle;fill:#242424;fill-opacity:1;stroke:none;stroke-width:0.438874px;stroke-linecap:butt;stroke-linejoin:miter;stroke-opacity:1"
       x="424.26279"
       y="1303.8171"
       id="text7835"><tspan
         sodipodi:role="line"
         id="tspan7833"
         style="font-style:normal;font-variant:normal;font-weight:bold;font-stretch:ultra-condensed;font-size:84.264px;font-family:'Fira Sans Compressed';-inkscape-font-specification:'Fira Sans Compressed, Bold Ultra-Condensed';font-variant-ligatures:normal;font-variant-caps:normal;font-variant-numeric:normal;font-variant-east-asian:normal;text-align:center;text-anchor:middle;fill:#242424;fill-opacity:1;stroke:none;stroke-width:0.438874px"
         x="424.26279"
         y="1303.8171">Dependable</tspan></text><text
       xml:space="preserve"
       style="font-style:normal;font-variant:normal;font-weight:bold;font-stretch:ultra-condensed;font-size:84.264px;line-height:10.9719px;font-family:'Fira Sans Compressed';-inkscape-font-specification:'Fira Sans Compressed, Bold Ultra-Condensed';font-variant-ligatures:normal;font-variant-caps:normal;font-variant-numeric:normal;font-variant-east-asian:normal;text-align:center;letter-spacing:0px;word-spacing:0px;text-anchor:middle;fill:#242424;fill-opacity:1;stroke:none;stroke-width:0.438874px;stroke-linecap:butt;stroke-linejoin:miter;stroke-opacity:1"
       x="424.26279"
       y="1422.2063"
       id="text7839"><tspan
         sodipodi:role="line"
         id="tspan7837"
         style="font-style:normal;font-variant:normal;font-weight:bold;font-stretch:ultra-condensed;font-size:84.264px;font-family:'Fira Sans Compressed';-inkscape-font-specification:'Fira Sans Compressed, Bold Ultra-Condensed';font-variant-ligatures:normal;font-variant-caps:normal;font-variant-numeric:normal;font-variant-east-asian:normal;text-align:center;text-anchor:middle;fill:#242424;fill-opacity:1;stroke:none;stroke-width:0.438874px"
         x="424.26279"
         y="1422.2063">Hackable</tspan></text><text
       xml:space="preserve"
       style="font-style:normal;font-variant:normal;font-weight:800;font-stretch:ultra-condensed;font-size:50.8px;line-height:6.61458px;font-family:'Fira Sans Compressed';-inkscape-font-specification:'Fira Sans Compressed, Ultra-Bold Ultra-Condensed';font-variant-ligatures:normal;font-variant-caps:normal;font-variant-numeric:normal;font-variant-east-asian:normal;letter-spacing:0px;word-spacing:0px;fill:#242424;fill-opacity:1;stroke:none;stroke-width:0.264583px;stroke-linecap:butt;stroke-linejoin:miter;stroke-opacity:1"
       x="304.61478"
       y="1883.3064"
       id="text7843"><tspan
         sodipodi:role="line"
         id="tspan7841"
         x="304.61478"
         y="1883.3064">guix.gnu.org</tspan></text><text
       xml:space="preserve"
       style="font-style:normal;font-variant:normal;font-weight:normal;font-stretch:ultra-condensed;font-size:37.078px;line-height:51.606px;font-family:'Fira Sans Compressed';-inkscape-font-specification:'Fira Sans Compressed, Ultra-Condensed';font-variant-ligatures:normal;font-variant-caps:normal;font-variant-numeric:normal;font-variant-east-asian:normal;text-align:center;letter-spacing:0px;word-spacing:0px;text-anchor:middle;fill:#242424;fill-opacity:1;stroke:none;stroke-width:0.99316px;stroke-linecap:butt;stroke-linejoin:miter;stroke-opacity:1"
       x="425.00095"
       y="1591.8523"
       id="text7851"><tspan
         sodipodi:role="line"
         x="425.00095"
         y="1591.8523"
         style="font-style:normal;font-variant:normal;font-weight:normal;font-stretch:ultra-condensed;font-size:37.078px;font-family:'Fira Sans Compressed';-inkscape-font-specification:'Fira Sans Compressed, Ultra-Condensed';font-variant-ligatures:normal;font-variant-caps:normal;font-variant-numeric:normal;font-variant-east-asian:normal;text-align:center;text-anchor:middle;fill:#242424;fill-opacity:1;stroke-width:0.99316px"
         id="tspan7845">GNU Guix is free software to deploy</tspan><tspan
         sodipodi:role="line"
         x="425.00095"
         y="1643.4583"
         style="font-style:normal;font-variant:normal;font-weight:normal;font-stretch:ultra-condensed;font-size:37.078px;font-family:'Fira Sans Compressed';-inkscape-font-specification:'Fira Sans Compressed, Ultra-Condensed';font-variant-ligatures:normal;font-variant-caps:normal;font-variant-numeric:normal;font-variant-east-asian:normal;text-align:center;text-anchor:middle;fill:#242424;fill-opacity:1;stroke-width:0.99316px"
         id="tspan7847">operating systems and complex software stacks</tspan><tspan
         sodipodi:role="line"
         x="425.00095"
         y="1695.0643"
         style="font-style:normal;font-variant:normal;font-weight:normal;font-stretch:ultra-condensed;font-size:37.078px;font-family:'Fira Sans Compressed';-inkscape-font-specification:'Fira Sans Compressed, Ultra-Condensed';font-variant-ligatures:normal;font-variant-caps:normal;font-variant-numeric:normal;font-variant-east-asian:normal;text-align:center;text-anchor:middle;fill:#242424;fill-opacity:1;stroke-width:0.99316px"
         id="tspan7849">in a reproducible fashion — anytime, on any machine.</tspan></text><g
       id="g7865"
       transform="matrix(6.3953032,0,0,6.3953086,1367.2436,-3017.6319)"><path
         id="path7853"
         d="m -96.103946,494.29038 c -1.124577,2.05527 -2.26626,3.72852 -3.429584,5.04694 -1.12456,1.27969 -2.36466,2.30329 -3.72187,3.07882 -1.31846,0.73681 -2.81439,1.26819 -4.48183,1.57838 -1.62868,0.27144 -3.49874,0.40928 -5.63153,0.4092 -1.57326,0 -2.98716,-0.0806 -4.22851,-0.23381 -0.005,0 -0.0145,0 -0.0195,0 -0.15738,-0.0114 -0.48242,-0.0643 -0.81842,-0.11692 -0.35391,-0.0554 -0.71567,-0.10881 -1.2861,-0.21435 -10.45613,-1.93464 -13.92392,5.32419 -14.67314,7.32685 -0.11727,0.31343 -0.17537,0.50659 -0.17537,0.50659 l -12.70504,35.42599 -7.79449,13.25071 h 15.5695 c 6.39455,-14.23769 12.54228,-43.96562 19.11601,-46.59161 1.42484,0.19928 3.19098,0.29225 5.31974,0.29225 2.79202,0 5.29186,-0.33472 7.50221,-1.03274 2.21032,-0.698 4.19848,-1.78065 5.98228,-3.25423 1.783774,-1.51232 3.397792,-3.44122 4.832586,-5.76793 1.473547,-2.32664 2.871055,-5.12171 4.189533,-8.37907 l -3.546462,-1.32507 z"
         style="font-style:normal;font-weight:bold;font-size:144px;line-height:125%;font-family:Sans;-inkscape-font-specification:'Sans Bold';letter-spacing:0px;word-spacing:0px;fill:#ffbf2d;fill-opacity:1;stroke:none;stroke-width:0.702181"
         inkscape:connector-curvature="0" /><path
         inkscape:connector-curvature="0"
         id="path7855"
         d="m -96.104346,494.29183 c -1.124578,2.05526 -2.266176,3.72622 -3.429514,5.04464 -1.12454,1.27969 -2.36513,2.30377 -3.72234,3.07931 -0.32651,0.18246 -0.66314,0.35014 -1.01134,0.50717 -0.004,10e-4 -0.006,0.004 -0.009,0.006 -0.43829,0.30823 -1.00202,0.57283 -1.76608,0.75473 -8.8123,2.0982 -14.81464,9.95147 -15.37843,10.71117 0.25563,-0.21017 0.51296,-0.38176 0.76983,-0.51321 0.0386,-0.0204 0.0761,-0.039 0.11472,-0.0574 0.006,-0.003 0.0119,-0.006 0.0181,-0.009 0.0448,-0.0209 0.091,-0.0395 0.13585,-0.0574 1.42483,0.19929 3.19059,0.29284 5.31935,0.29284 2.79202,0 5.2917,-0.33747 7.50204,-1.0355 2.21034,-0.698 4.19671,-1.77781 5.98051,-3.25138 1.783779,-1.51232 3.398521,-3.44247 4.833315,-5.76918 1.473547,-2.32665 2.871806,-5.12318 4.19027,-8.38056 l -3.547248,-1.32229 z"
         style="font-style:normal;font-weight:bold;font-size:144px;line-height:125%;font-family:Sans;-inkscape-font-specification:'Sans Bold';letter-spacing:0px;word-spacing:0px;fill:url(#linearGradient7881);fill-opacity:1;stroke:none;stroke-width:0.702181" /><path
         id="path7857"
         d="m -198.46528,494.29039 c 1.12458,2.05526 2.26625,3.72851 3.42958,5.04693 1.12456,1.27969 2.36466,2.30329 3.72187,3.07882 1.31845,0.73681 2.81439,1.26819 4.48183,1.57838 1.62868,0.27153 3.49875,0.40928 5.63153,0.4092 1.57327,0 2.98716,-0.0806 4.22851,-0.23381 0.005,0 0.0145,0 0.0195,0 0.15736,-0.0113 0.48241,-0.0643 0.81842,-0.11692 0.3539,-0.0554 0.71566,-0.10881 1.28609,-0.21435 10.45614,-1.93464 13.92393,5.32419 14.67315,7.32685 0.11726,0.31343 0.17537,0.50659 0.17537,0.50659 l 12.70502,35.42599 7.7945,13.25071 h -15.5695 c -6.39455,-14.23769 -12.54227,-43.96562 -19.116,-46.59161 -1.42485,0.19928 -3.19099,0.29225 -5.31975,0.29225 -2.79201,0 -5.29186,-0.33472 -7.5022,-1.03274 -2.21034,-0.698 -4.1985,-1.78065 -5.98228,-3.25423 -1.78377,-1.51232 -3.3978,-3.44122 -4.83258,-5.76793 -1.47356,-2.32662 -2.87108,-5.12169 -4.18955,-8.37907 l 3.5465,-1.32506 z"
         style="font-style:normal;font-weight:bold;font-size:144px;line-height:125%;font-family:Sans;-inkscape-font-specification:'Sans Bold';letter-spacing:0px;word-spacing:0px;fill:#ffbf2d;fill-opacity:1;stroke:none;stroke-width:0.702181"
         inkscape:connector-curvature="0" /><path
         inkscape:connector-curvature="0"
         style="font-style:normal;font-weight:bold;font-size:144px;line-height:125%;font-family:Sans;-inkscape-font-specification:'Sans Bold';letter-spacing:0px;word-spacing:0px;fill:url(#linearGradient7883);fill-opacity:1;stroke:none;stroke-width:0.702181"
         d="m -198.46591,494.28987 c 1.12458,2.05527 2.26625,3.72851 3.42958,5.04693 1.12456,1.2797 2.36466,2.3033 3.72187,3.07883 1.31845,0.7368 2.81439,1.26819 4.48183,1.57838 1.62868,0.27152 3.49874,0.40927 5.63153,0.4092 1.57327,0 2.98716,-0.0806 4.22851,-0.23382 0.005,0 0.0145,0 0.0195,0 0.15738,-0.0113 0.48242,-0.0643 0.81843,-0.11692 0.3539,-0.0554 0.71566,-0.10881 1.28609,-0.21434 10.45614,-1.93464 13.92392,5.32418 14.67314,7.32684 0.11727,0.31344 0.17537,0.5066 0.17537,0.5066 l 12.70503,35.42601 6.54738,13.25071 h -14.32238 c -6.39455,-14.23777 -12.54227,-43.96565 -19.11601,-46.59164 -1.42483,0.19929 -3.19099,0.29225 -5.31975,0.29225 -2.792,0 -5.29185,-0.33472 -7.50219,-1.03274 -2.21033,-0.698 -4.19849,-1.78065 -5.98228,-3.25423 -1.78377,-1.51231 -3.3978,-3.44121 -4.83258,-5.76792 -1.47356,-2.32663 -2.87108,-5.1217 -4.18955,-8.37908 l 3.5465,-1.32506 z"
         id="path7859"
         sodipodi:nodetypes="ccccccccsscccccccccccc" /><path
         sodipodi:nodetypes="ccc"
         d="m -147.29768,547.09252 -7.76391,13.25626 h 15.56172"
         style="font-style:normal;font-weight:bold;font-size:144px;line-height:125%;font-family:Sans;-inkscape-font-specification:'Sans Bold';letter-spacing:0px;word-spacing:0px;fill:url(#linearGradient7885);fill-opacity:1;stroke:none;stroke-width:0.702181"
         id="path7861"
         inkscape:connector-curvature="0" /><path
         inkscape:connector-curvature="0"
         id="path7863"
         d="m -198.46422,494.29183 -3.54725,1.32229 c 0.41202,1.01793 0.83153,1.99186 1.2589,2.91931 0.0855,0.18549 0.17052,0.36759 0.2566,0.54944 3.4e-4,6.7e-4 -3.3e-4,0.002 0,0.003 0.0857,0.18102 0.17334,0.35995 0.25963,0.53737 0.0288,0.0591 0.0587,0.11636 0.0876,0.17509 0.14474,0.29492 0.2883,0.58765 0.43473,0.87248 6.7e-4,10e-4 0.002,10e-4 0.003,0.003 0.0873,0.16971 0.17477,0.33803 0.26265,0.50415 0.35443,0.67013 0.71371,1.31144 1.07776,1.92307 0.0909,0.15272 0.18019,0.30074 0.2717,0.44981 0.0355,0.0578 0.0701,0.11485 0.10567,0.17208 0.0566,0.0912 0.11522,0.18194 0.17207,0.27171 0.0897,0.14541 0.17761,0.2894 0.26869,0.43171 0.1451,0.22672 0.29514,0.44837 0.44378,0.66718 0.0375,0.0553 0.0739,0.1113 0.1117,0.16604 0.0943,0.13676 0.18806,0.27096 0.28378,0.40454 0.19048,0.26582 0.38365,0.52567 0.57963,0.77888 0.098,0.12661 0.1965,0.25091 0.29586,0.37435 0.19873,0.24688 0.39961,0.48736 0.60379,0.72152 0.1548,0.17753 0.31303,0.3521 0.47095,0.52228 0.0499,0.0537 0.10074,0.10699 0.15094,0.16 0.2101,0.22193 0.42151,0.43707 0.637,0.64605 0.10748,0.10425 0.2142,0.20693 0.32302,0.30793 0.10936,0.10153 0.21838,0.20063 0.32907,0.29888 0.11016,0.0978 0.22059,0.19228 0.33208,0.2868 0.33446,0.27629 0.67749,0.53909 1.02644,0.78794 0.93052,0.66359 1.91289,1.23016 2.9495,1.69965 0.12957,0.0587 0.25817,0.11642 0.38943,0.17209 0.26338,0.11173 0.52977,0.21738 0.80002,0.31698 0.1347,0.0496 0.26813,0.0953 0.40455,0.14189 0.13641,0.0466 0.27544,0.0922 0.41359,0.13585 0.13814,0.0436 0.2762,0.086 0.41661,0.1268 0.28081,0.0816 0.56749,0.15909 0.85737,0.22944 0.14494,0.0352 0.29055,0.0673 0.43774,0.0996 0.14721,0.0324 0.29432,0.064 0.44379,0.0936 0.15043,0.0298 0.30012,0.0575 0.45284,0.0845 0.30348,0.0537 0.61123,0.10217 0.92379,0.14491 0.46885,0.0641 0.9477,0.11723 1.43701,0.15699 0.32622,0.0265 0.65791,0.0476 0.99323,0.0634 0.33532,0.0158 0.67596,0.0249 1.0204,0.0302 0.17222,0.003 0.34475,0.003 0.51926,0.003 0.26609,0 0.5271,-10e-5 0.7819,-0.003 0.50961,-0.006 0.99622,-0.0183 1.46117,-0.0362 0.23144,-0.009 0.45875,-0.0182 0.67926,-0.0302 0.22143,-0.012 0.43859,-0.0271 0.64906,-0.0423 0.63143,-0.0456 1.21365,-0.10339 1.74796,-0.17812 0.0448,0.0179 0.0911,0.0364 0.13585,0.0574 0.006,0.003 0.0119,0.006 0.0181,0.009 0.0387,0.0184 0.0761,0.0369 0.11472,0.0574 0.25702,0.13153 0.51404,0.30288 0.76982,0.51322 -0.5626,-0.75816 -6.56511,-8.61281 -15.37843,-10.71117 -0.76404,-0.18193 -1.32779,-0.44649 -1.76607,-0.75474 -0.004,-0.001 -0.006,-0.004 -0.009,-0.006 -0.34741,-0.15668 -0.68551,-0.32518 -1.01134,-0.50718 -6.7e-4,-3.4e-4 -0.002,3.3e-4 -0.003,0 -0.0841,-0.048 -0.1674,-0.098 -0.25057,-0.14793 -6.7e-4,-3.4e-4 -0.002,3.3e-4 -0.003,0 -0.0839,-0.0504 -0.16456,-0.10161 -0.24756,-0.15397 -0.16667,-0.10514 -0.3321,-0.21304 -0.4951,-0.32604 -0.0812,-0.0562 -0.16125,-0.11387 -0.24151,-0.17208 -0.16164,-0.11724 -0.31904,-0.23708 -0.47699,-0.36227 -0.0784,-0.0621 -0.15493,-0.12308 -0.23246,-0.18718 -0.0781,-0.0646 -0.15527,-0.12966 -0.23246,-0.19623 -0.0766,-0.0661 -0.1507,-0.13422 -0.22642,-0.20227 -0.37857,-0.34023 -0.74596,-0.70294 -1.10191,-1.09285 -0.0712,-0.078 -0.14406,-0.15851 -0.21434,-0.2385 -0.25867,-0.29316 -0.51626,-0.60429 -0.77285,-0.93284 -0.0319,-0.0409 -0.0617,-0.0823 -0.0936,-0.12378 -0.072,-0.0936 -0.14548,-0.18735 -0.21737,-0.28378 -0.35945,-0.48214 -0.71608,-1.00082 -1.07172,-1.55476 -0.14225,-0.22156 -0.28399,-0.44903 -0.42567,-0.68227 -0.0708,-0.11663 -0.14062,-0.23366 -0.21132,-0.35321 -0.21142,-0.35755 -0.42378,-0.72993 -0.63397,-1.11399 z"
         style="font-style:normal;font-weight:bold;font-size:144px;line-height:125%;font-family:Sans;-inkscape-font-specification:'Sans Bold';letter-spacing:0px;word-spacing:0px;fill:url(#linearGradient7887);fill-opacity:1;stroke:none;stroke-width:0.702181" /></g><g
       id="g7875"
       transform="translate(-0.962,0.65820272)"><text
         xml:space="preserve"
         style="font-size:92.5614px;line-height:1.25;font-family:sans-serif;-inkscape-font-specification:sans-serif;text-align:center;letter-spacing:0px;text-anchor:middle;fill:#ffa02d;fill-opacity:1;stroke-width:0.642787"
         x="263.0264"
         y="1895.6677"
         id="text7869"><tspan
           sodipodi:role="line"
           id="tspan7867"
           style="font-style:normal;font-variant:normal;font-weight:bold;font-stretch:normal;font-family:sans-serif;-inkscape-font-specification:'sans-serif Bold';fill:#ffa02d;fill-opacity:1;stroke-width:0.642787"
           x="263.0264"
           y="1895.6677">«</tspan></text><text
         xml:space="preserve"
         style="font-size:92.5614px;line-height:1.25;font-family:sans-serif;-inkscape-font-specification:sans-serif;text-align:center;letter-spacing:0px;text-anchor:middle;fill:#ffa02d;fill-opacity:1;stroke-width:0.642787"
         x="-589.52771"
         y="1895.6677"
         id="text7873"
         transform="scale(-1,1)"><tspan
           sodipodi:role="line"
           id="tspan7871"
           style="font-style:normal;font-variant:normal;font-weight:bold;font-stretch:normal;font-family:sans-serif;-inkscape-font-specification:'sans-serif Bold';fill:#ffa02d;fill-opacity:1;stroke-width:0.642787"
           x="-589.52771"
           y="1895.6677">«</tspan></text></g></g></svg>
