<?xml version="1.0" encoding="UTF-8" standalone="no"?>
<!-- Created with Inkscape (http://www.inkscape.org/) -->

<svg
   inkscape:export-ydpi="96"
   inkscape:export-xdpi="96"
   inkscape:export-filename="./home-page.pdf"
   sodipodi:docname="guix-shell.svg"
   inkscape:version="1.2.1 (9c6d41e410, 2022-07-14)"
   version="1.1"
   id="svg2"
   height="350"
   width="450"
   xmlns:inkscape="http://www.inkscape.org/namespaces/inkscape"
   xmlns:sodipodi="http://sodipodi.sourceforge.net/DTD/sodipodi-0.dtd"
   xmlns="http://www.w3.org/2000/svg"
   xmlns:svg="http://www.w3.org/2000/svg"
   xmlns:rdf="http://www.w3.org/1999/02/22-rdf-syntax-ns#"
   xmlns:cc="http://creativecommons.org/ns#"
   xmlns:dc="http://purl.org/dc/elements/1.1/">
  <title
     id="title3542">Guix · Floating Guix Shell</title>
  <defs
     id="defs4" />
  <sodipodi:namedview
     id="base"
     pagecolor="#1a1a1a"
     bordercolor="#b18f08"
     borderopacity="1"
     inkscape:pageopacity="0"
     inkscape:pageshadow="2"
     inkscape:zoom="1"
     inkscape:cx="260"
     inkscape:cy="260"
     inkscape:document-units="px"
     inkscape:current-layer="layer11"
     showgrid="false"
     inkscape:showpageshadow="false"
     inkscape:window-width="1920"
     inkscape:window-height="1011"
     inkscape:window-x="0"
     inkscape:window-y="32"
     inkscape:window-maximized="1"
     borderlayer="true"
     inkscape:snap-bbox="true"
     inkscape:bbox-nodes="true"
     inkscape:snap-global="true"
     fit-margin-top="0"
     fit-margin-left="0"
     fit-margin-right="0"
     fit-margin-bottom="0"
     showguides="true"
     inkscape:guide-bbox="true"
     inkscape:snap-page="true"
     inkscape:bbox-paths="true"
     inkscape:pagecheckerboard="0"
     inkscape:deskcolor="#1a1a1a">
    <inkscape:grid
       type="axonomgrid"
       id="grid14846"
       spacingy="15.11811"
       originx="-507.21248"
       originy="-3778.8962" />
  </sodipodi:namedview>
  <metadata
     id="metadata7">
    <rdf:RDF>
      <cc:Work
         rdf:about="">
        <dc:format>image/svg+xml</dc:format>
        <dc:type
           rdf:resource="http://purl.org/dc/dcmitype/StillImage" />
        <dc:title>Guix · Floating Guix Shell</dc:title>
        <cc:license
           rdf:resource="http://creativecommons.org/licenses/by-sa/4.0/" />
        <dc:date>2023-09-21</dc:date>
        <dc:creator>
          <cc:Agent>
            <dc:title>Luis Felipe López Acevedo</dc:title>
          </cc:Agent>
        </dc:creator>
        <dc:language>en</dc:language>
      </cc:Work>
      <cc:License
         rdf:about="http://creativecommons.org/licenses/by-sa/4.0/">
        <cc:permits
           rdf:resource="http://creativecommons.org/ns#Reproduction" />
        <cc:permits
           rdf:resource="http://creativecommons.org/ns#Distribution" />
        <cc:requires
           rdf:resource="http://creativecommons.org/ns#Notice" />
        <cc:requires
           rdf:resource="http://creativecommons.org/ns#Attribution" />
        <cc:permits
           rdf:resource="http://creativecommons.org/ns#DerivativeWorks" />
        <cc:requires
           rdf:resource="http://creativecommons.org/ns#ShareAlike" />
      </cc:License>
    </rdf:RDF>
  </metadata>
  <g
     inkscape:groupmode="layer"
     id="layer11"
     inkscape:label="layer 01"
     style="display:inline"
     transform="translate(-529.88965,-3778.8962)">
    <g
       id="g67671"
       transform="matrix(0.3731905,0,0,0.37385455,139.41623,630.90356)"
       style="stroke-width:2.67721" />
    <g
       id="g81575"
       transform="translate(50.000124,1409.9101)">
      <ellipse
         style="fill:#000000;fill-opacity:1;stroke:none;stroke-width:0.467673;stroke-dasharray:none"
         id="path21145"
         cx="704.88953"
         cy="2641.2512"
         rx="145.59332"
         ry="10.283889" />
      <path
         id="path10787"
         style="fill:#1a1a1a;fill-opacity:1;stroke:#ffcc00;stroke-width:1;stroke-dasharray:none"
         d="m 567.96663,2436.9371 c -2.10708,0 -3.80273,1.6957 -3.80273,3.8028 v 155.1797 c 0,2.1071 1.69565,3.8027 3.80273,3.8027 h 273.84571 c 2.10709,0 3.80273,-1.6956 3.80273,-3.8027 v -155.1797 c 0,-2.1071 -1.69564,-3.8028 -3.80273,-3.8028 z" />
      <text
         xml:space="preserve"
         style="font-style:normal;font-variant:normal;font-weight:normal;font-stretch:normal;font-size:12.7219px;line-height:1.25;font-family:sans-serif;-inkscape-font-specification:sans-serif;letter-spacing:0px;fill:#ffcc00;stroke-width:0.454357"
         x="797.76501"
         y="2555.3894"
         id="text24520"
         transform="scale(1.042698,0.95905046)"><tspan
           sodipodi:role="line"
           id="tspan24518"
           x="797.76501"
           y="2555.3894"
           style="stroke-width:0.454357">x</tspan></text>
      <path
         style="fill:none;stroke:#ffcc00;stroke-width:1px;stroke-linecap:butt;stroke-linejoin:miter;stroke-opacity:1"
         d="M 845.47036,2457.7402 H 564.3289"
         id="path26314" />
    </g>
  </g>
</svg>
